{
  "name": "64hbae-q35ddgl",
  "hash": "QHxCK2kIu9FajG9GXhi1+YmJevFuXOUzVyImK3JzPgo=",
  "description": "API Lambda@Edge for Next CloudFront distribution",
  "memory": 512,
  "timeout": 10,
  "code": "/developments/Frontend/relengfrontend/.serverless_nextjs/api-lambda",
  "shims": [],
  "handler": "index.handler",
  "runtime": "nodejs12.x",
  "env": {},
  "role": {
    "arn": "arn:aws:iam::045818011515:role/64hbae-3sp6zkw"
  },
  "arn": "arn:aws:lambda:us-east-1:045818011515:function:64hbae-q35ddgl",
  "region": "us-east-1"
}